// Jest Snapshot v1, https://goo.gl/fbAQLP

exports[`InputCheckbox renders correctly 1`] = `
<div
  className="form-element form-element--checkbox"
>
  <input
    checked={false}
    disabled={false}
    id="InputCheckbox"
    name="InputCheckbox"
    onChange={[Function]}
    required={false}
    type="checkbox"
  />
  <label
    className="label"
    htmlFor="InputCheckbox"
    id="InputCheckbox-label"
  >
    My Input Checkbox
  </label>
  
  
</div>
`;
